treatment,count
Control,6
Control,6
Control,8
Control,11
Control,8
Control,7
Control,2
Control,6
Control,8
Control,10
K,6
K,8
K,9
K,11
K,6
K,5
K,7
K,10
K,6
K,8
K+P,4
K+P,7
K+P,7
K+P,12
K+P,5
K+P,9
K+P,7
K+P,7
K+P,12
K+P,9
L,0
L,6
L,8
L,10
L,3
L,6
L,6
L,7
L,5
L,5
L+K,3
L+K,7
L+K,8
L+K,10
L+K,3
L+K,6
L+K,7
L+K,9
L+K,9
L+K,4
L+K+P,4
L+K+P,4
L+K+P,6
L+K+P,10
L+K+P,12
L+K+P,6
L+K+P,8
L+K+P,9
L+K+P,12
L+K+P,10
L+P,3
L+P,7
L+P,9
L+P,11
L+P,4
L+P,6
L+P,7
L+P,7
L+P,8
L+P,6
P,1
P,3
P,5
P,13
P,4
P,5
P,5
P,9
P,6
P,7
