subchamber,count
1,0.288888889
2,0.211111111
3,0.222222222
4,0.277777778
1,0.243841461
2,0.262152346
3,0.212354891
4,0.281651302
1,0.22507948
2,0.3096647
3,0.21841932
4,0.2468365
1,0.33517362
2,0.21730868
3,0.28196554
4,0.16555216
1,0.22771458
2,0.21841932
3,0.2758874
4,0.2779787
1,0.23539207
2,0.2568525
3,0.27486347
4,0.23289196
1,0.2691786
2,0.2116866
3,0.2805545
4,0.2385803
1,0.27347168
2,0.2464201
3,0.2248275
4,0.25528072
